<svg width="79" height="82" viewBox="0 0 79 82" fill="none" xmlns="http://www.w3.org/2000/svg">
<path d="M0.823975 74.4426V78.5031C0.823975 79.9983 2.16272 81.2102 3.81427 81.2102H75.5798C77.2313 81.2102 78.5701 79.9983 78.5701 78.5031V74.4426H0.823975Z" fill="#394D5C"/>
<path d="M0.823975 74.4426V78.5031C0.823975 79.9983 2.16272 81.2102 3.81427 81.2102H75.5798C77.2313 81.2102 78.5701 79.9983 78.5701 78.5031V74.4426H0.823975Z" fill="#394D5C"/>
<path d="M74.4192 74.4426V78.5031C74.4192 79.9983 73.0804 81.2102 71.4289 81.2102H75.5788C77.2304 81.2102 78.5691 79.9983 78.5691 78.5031V74.4426H74.4192Z" fill="#2C4252"/>
<path d="M77.0741 75.7962H2.31848C1.40859 75.7962 0.709708 75.0667 0.838402 74.2513L1.477 70.2828L2.76051 69.0362L1.86651 67.8618L7.14568 35.0572L8.25141 33.7944L7.5361 32.6311L11.7334 6.55188L12.8005 5.52932L12.1122 4.19842L12.6008 1.16194C12.7059 0.495268 13.3367 0 14.0807 0H17.4066L18.7224 0.817004L20.1012 0H26.3902L27.6026 0.817004L29.0858 0H32.423L33.8276 0.817004L35.1664 0H44.2564L45.7724 0.653603L46.9876 0H50.312L51.6784 0.817004L53.0105 0H59.2822L60.6798 0.653603L61.9882 0H62.5641L78.554 74.2513C78.6829 75.0667 77.9838 75.7962 77.0741 75.7962Z" fill="#0CC210"/>
<path d="M78.5542 74.2513L77.9172 70.2934L76.6481 69.1365L77.5288 67.8788L72.248 35.0653L71 34.0408L71.8549 32.6231L67.6628 6.57541L66.5916 5.52719L67.2757 4.16982L66.7916 1.16211C66.6863 0.495268 66.0555 0 65.3115 0H61.981L61.1938 0.0870926C61.498 0.0870926 61.7508 0.0826808 61.9891 0.226147C62.3335 0.433502 62.5793 0.76782 62.6416 1.16194L74.4042 74.2511C74.5329 75.0665 73.834 75.7961 72.9241 75.7961H77.0743C77.9838 75.7962 78.6829 75.0666 78.5542 74.2513V74.2513Z" fill="#326764"/>
<path d="M39.6961 41.8306C34.0032 41.8306 29.3717 38.2449 29.3717 33.8377C29.3717 29.4303 34.0032 25.8446 39.6961 25.8446C45.389 25.8446 50.0205 29.4303 50.0205 33.8377C50.0205 38.2449 45.389 41.8306 39.6961 41.8306V41.8306ZM39.6961 28.2956C35.4961 28.2956 32.0791 30.7818 32.0791 33.8377C32.0791 36.8936 35.4961 39.3796 39.6961 39.3796C43.8961 39.3796 47.3131 36.8934 47.3131 33.8377C47.3131 30.7819 43.8962 28.2956 39.6961 28.2956V28.2956Z" fill="#FAFAFA"/>
<path d="M51.6571 60.779C50.9093 60.779 50.3033 60.2303 50.3033 59.5535C50.3033 55.7515 45.5451 52.6585 39.6961 52.6585C33.8473 52.6585 29.0888 55.7515 29.0888 59.5535C29.0888 60.2303 28.4827 60.779 27.7351 60.779C26.9875 60.779 26.3814 60.2303 26.3814 59.5535C26.3814 54.4 32.3544 50.2075 39.6961 50.2075C47.0378 50.2075 53.0108 54.4 53.0108 59.5535C53.0108 60.2303 52.4047 60.779 51.6571 60.779Z" fill="#FAFAFA"/>
<path d="M39.6961 17.4675C34.8275 17.4675 30.8667 14.4891 30.8667 10.8281C30.8667 10.1513 31.4728 9.60257 32.2205 9.60257C32.9681 9.60257 33.5742 10.1513 33.5742 10.8281C33.5742 13.1376 36.3204 15.0165 39.6961 15.0165C43.0717 15.0165 45.818 13.1376 45.818 10.8281C45.818 10.1513 46.4239 9.60257 47.1717 9.60257C47.9195 9.60257 48.5254 10.1513 48.5254 10.8281C48.5254 14.4891 44.5646 17.4675 39.6961 17.4675Z" fill="#FAFAFA"/>
<path d="M32.9222 6.63914L46.4703 6.63865C46.8629 6.63865 47.2358 6.4844 47.493 6.21609C47.7502 5.94763 47.8659 5.59158 47.8105 5.23977L46.9847 0H44.239L44.9094 4.1878L34.483 4.18813L35.1685 0H32.4232L31.5819 5.24043C31.5265 5.59207 31.6423 5.94828 31.8994 6.21675C32.1566 6.48505 32.5298 6.63914 32.9222 6.63914Z" fill="#FAFAFA"/>
<path d="M26.0265 12.0534L53.3655 12.0524C53.758 12.0524 54.131 11.8984 54.3882 11.6299C54.6454 11.3614 54.7611 11.0054 54.7057 10.6536L53.0245 0H50.3048C50.3048 0.0573537 50.3077 0.115034 50.3169 0.173368L51.8047 9.60159L27.5873 9.60241L29.0753 0.173368C29.0845 0.115034 29.0874 0.0573537 29.0874 0H26.3677L24.6863 10.6547C24.6309 11.0064 24.7468 11.3626 25.0038 11.631C25.261 11.8993 25.6341 12.0534 26.0265 12.0534Z" fill="#FAFAFA"/>
<path d="M12.784 4.18845C12.5618 4.18845 12.3387 4.17407 12.1205 4.1458L11.7303 6.57116C11.7312 6.57133 11.7319 6.57149 11.7328 6.57165C12.079 6.61659 12.4326 6.63946 12.784 6.63946C16.8281 6.63946 20.1182 3.66099 20.1182 0H17.4107C17.4107 2.30951 15.3352 4.18845 12.784 4.18845V4.18845Z" fill="#FAFAFA"/>
<path d="M58.917 75.6233L57.2083 64.7944C57.113 64.1907 56.5419 63.7423 55.8681 63.7423L23.5243 63.7426C22.8507 63.7426 22.2794 64.1912 22.1841 64.7949L20.4754 75.6229C20.4662 75.6812 20.4633 75.7389 20.4633 75.7962H23.183L24.6983 66.1937L54.694 66.1932L56.2092 75.7961H58.9291C58.929 75.739 58.9261 75.6815 58.917 75.6233Z" fill="#FAFAFA"/>
<path d="M64.9581 75.6229L62.395 59.3803C62.2997 58.7766 61.7286 58.3282 61.0548 58.3282L18.3372 58.3287C17.6636 58.3287 17.0923 58.7772 16.997 59.3808L14.434 75.6229C14.4248 75.6812 14.4219 75.7389 14.4219 75.7961H17.1416L19.5112 60.7795L59.8805 60.7791L62.2503 75.7961H64.9702C64.9702 75.7389 64.9673 75.6812 64.9581 75.6229V75.6229Z" fill="#FAFAFA"/>
<path d="M66.6082 6.63946C66.9596 6.63946 67.3132 6.61659 67.6594 6.57165C67.6603 6.57149 67.6612 6.57133 67.6621 6.57116L67.2718 4.1458C67.0536 4.17407 66.8305 4.18845 66.6082 4.18845C64.057 4.18845 61.9815 2.30951 61.9815 0H59.274C59.274 3.66099 62.5641 6.63946 66.6082 6.63946V6.63946Z" fill="#FAFAFA"/>
<path d="M9.65187 75.7956C9.65187 71.738 6.30817 68.3336 1.86704 67.8594L1.47699 70.2831C1.49143 70.2851 1.50533 70.288 1.51995 70.2895C4.6124 70.6058 6.94442 72.973 6.94442 75.7956V75.7961H9.65187C9.65187 75.7961 9.65187 75.7957 9.65187 75.7956Z" fill="#FAFAFA"/>
<path d="M61.9815 0H61.1613C61.4658 0 61.7503 0.083988 61.9885 0.227617C61.984 0.152126 61.9815 0.0763082 61.9815 0V0Z" fill="#D0E2ED"/>
<path d="M66.6082 4.18845C65.059 4.18845 63.6861 3.49482 62.8461 2.43336L63.4163 5.97671C64.3817 6.40106 65.4647 6.63946 66.6082 6.63946C66.9596 6.63946 67.3132 6.61659 67.6594 6.57165L67.6621 6.57116L67.4137 5.02801L67.2717 4.1458C67.0534 4.17407 66.8304 4.18845 66.6082 4.18845V4.18845Z" fill="#D0E2ED"/>
<path d="M7.14499 35.0632H72.2475L71.8529 32.6122H7.53956L7.14499 35.0632Z" fill="#FAFAFA"/>
<path d="M77.9156 70.2831L77.5255 67.8594C73.0842 68.3336 69.7405 71.738 69.7405 75.7956V75.7961H72.4478C72.4478 75.7959 72.4478 75.7957 72.4478 75.7956C72.4478 72.973 74.78 70.6058 77.8724 70.2895C77.8871 70.288 77.9011 70.2851 77.9156 70.2831V70.2831Z" fill="#FAFAFA"/>
</svg>
