<svg width="25" height="25" viewBox="0 0 25 25" fill="none" xmlns="http://www.w3.org/2000/svg">
<path d="M0.67155 10.8738C0.672123 10.8732 0.672695 10.8727 0.673267 10.8721L10.8723 0.674438C11.3071 0.239563 11.885 0 12.4998 0C13.1146 0 13.6926 0.239372 14.1276 0.674248L24.3213 10.8667C24.3247 10.8702 24.3281 10.8738 24.3316 10.8772C25.2243 11.775 25.2228 13.2317 24.3272 14.1272C23.918 14.5365 23.3776 14.7736 22.7998 14.7984C22.7764 14.8006 22.7527 14.8018 22.7289 14.8018H22.3224V22.3066C22.3224 23.7917 21.1139 25 19.6283 25H15.6381C15.2337 25 14.9056 24.6721 14.9056 24.2676V18.3838C14.9056 17.7061 14.3544 17.1549 13.6766 17.1549H11.3231C10.6453 17.1549 10.0941 17.7061 10.0941 18.3838V24.2676C10.0941 24.6721 9.76614 25 9.36155 25H5.37136C3.88576 25 2.67733 23.7917 2.67733 22.3066V14.8018H2.3004C1.68579 14.8018 1.10781 14.5624 0.672695 14.1275C-0.22385 13.2305 -0.224232 11.7714 0.67155 10.8738V10.8738Z" fill="#7A7672"/>
</svg>
