<svg width="25" height="25" viewBox="0 0 25 25" fill="none" xmlns="http://www.w3.org/2000/svg">
<g clip-path="url(#clip0_1_103)">
<path d="M24.4688 24.3645C24.4995 24.5186 24.4615 24.6783 24.3646 24.802C24.2656 24.9254 24.1166 24.998 23.9584 24.9999H1.0417C0.8835 24.998 0.734477 24.9254 0.635454 24.802C0.538579 24.6783 0.500542 24.5186 0.531304 24.3645L3.3334 11.4583L3.56255 10.4166L5.73959 0.406181C5.79121 0.166435 6.00483 -0.00358417 6.24999 -6.85451e-05H18.75C18.9952 -0.00358417 19.2088 0.166435 19.2604 0.406181L21.4375 10.4166L21.6666 11.4582L24.4688 24.3645Z" fill="#3BB83E"/>
<path d="M21.3887 10.4166H17.0241C16.1283 6.98955 14.0554 6.25 12.4512 6.25C10.1596 6.25 8.55537 7.73959 7.87832 10.4166H3.51373L3.28458 11.4583H7.72207C7.71611 12.3149 8.01518 13.1457 8.56582 13.802C9.53139 14.9495 10.9516 15.6158 12.4512 15.6249C13.9674 15.6068 15.4008 14.93 16.3783 13.7708C16.9181 13.1225 17.2065 12.3017 17.1908 11.4583H21.6179L21.3887 10.4166ZM12.4512 7.29165C14.1908 7.29165 15.3262 8.32289 15.9408 10.4166H8.95122C9.53452 8.35414 10.7012 7.29165 12.4512 7.29165ZM15.5658 13.1146C14.1505 14.8333 11.61 15.0792 9.89125 13.664C9.70136 13.5076 9.52617 13.3342 9.36787 13.1458C8.97539 12.6719 8.76484 12.0736 8.77412 11.4583H16.1387C16.1578 12.0621 15.9539 12.6517 15.5658 13.1146Z" fill="#FAFAFA"/>
<path d="M18.295 25H17.2325L16.1908 19.7916H8.71162L7.66997 25H6.60747L7.77412 19.1666C7.82363 18.9241 8.03701 18.75 8.28452 18.75H16.6179C16.8654 18.75 17.0788 18.9241 17.1283 19.1666L18.295 25Z" fill="#FAFAFA"/>
<path d="M15.5657 3.56347C15.5968 3.71269 15.5541 3.86777 15.4511 3.98012C15.3566 4.10209 15.2096 4.17177 15.0553 4.16762H9.84701C9.69272 4.17177 9.54569 4.10209 9.45116 3.98012C9.34819 3.86772 9.30556 3.71269 9.33656 3.56347L9.93031 0.000976562H10.9824L10.4616 3.12597H14.4407L13.9199 0.000976562H14.9719L15.5657 3.56347Z" fill="#FAFAFA"/>
</g>
<defs>
<clipPath id="clip0_1_103">
<rect width="25" height="25" fill="white"/>
</clipPath>
</defs>
</svg>
